{
  "category" : {
    "package" : {
      "name" : "Domestic & International Payment",
      "id" : "MYR 78"
    },
    "region" : {
      "name" : "Peninsular Malaysia",
      "id" : "101"
    },
    "cifNo" : "1234567",
    "segment" : {
      "name" : "Embassy",
      "id" : "104"
    }
  },
  "declarations" : [

  ],
  "accounts" : [

  ],
  "id" : "1",
  "paymentManagementServices" : [

  ],
  "portfolioSummaryServices" : [

  ],
  "accountUsers" : [
    {
      "email" : {
        "value" : "a@b.com",
        "id" : ""
      },
      "mobile" : {
        "value" : "+6054646546544",
        "id" : ""
      },
      "fax" : {
        "value" : "",
        "id" : ""
      },
      "name" : "dsfsdfs",
      "telephone" : {
        "value" : "+6056564564654",
        "id" : ""
      },
      "designation" : "adfsadfasd",
      "verificationReference" : {
        "type" : {
          "name" : "ID",
          "id" : "101"
        },
        "verificationReferenceId" : "dgdfgdfg"
      },
      "id" : "1",
      "right" : {
        "canAuthorizerViewDetails" : false,
        "permissions" : [
          {
            "title" : "Viewer",
            "id" : "101"
          }
        ],
        "approvalGroup" : {
          "name" : "B",
          "id" : "102"
        },
        "role" : {
          "title" : "Super User",
          "id" : "101"
        }
      }
    }
  ]
}